project_manager/cocotb/dump.vcd
$date
	Sun Jun  6 20:39:16 2021
$end
$version
	Icarus Verilog
$end
$timescale
	1ps
$end
$scope module adder $end
$var wire 4 ! A [3:0] $end
$var wire 4 " B [3:0] $end
$var wire 5 # X [4:0] $end
$upscope $end
$enddefinitions $end
#0
$dumpvars
b1111 #
b1010 "
b101 !
$end
#2001
b1011 !
b1110 #
b11 "
#4001
b1010 !
b10101 #
b1011 "
#6001
b1101 !
b10011 #
b110 "
#8001
b1010 !
b10110 #
b1100 "
#10001
b10010 #
b110 !
#12001
b1101 !
b10110 #
b1001 "
#14001
b101 !
b10001 #
b1100 "
#16001
b110 !
b110 #
b0 "
#18001
b1111 !
b10000 #
b1 "
#20001
b0 !
b10 #
b10 "
